<?xml version="1.0" standalone="no"?>
<!DOCTYPE svg PUBLIC "-//W3C//DTD SVG 1.1//EN" "http://www.w3.org/Graphics/SVG/1.1/DTD/svg11.dtd" >
<svg xmlns="http://www.w3.org/2000/svg">
<metadata>
This is a custom SVG webfont generated by Font Squirrel.
Copyright   : Copyright c 1990 Adobe Systems Incorporated  All Rights ReservedHelvetica is a trademark of Linotype AG andor its subsidiaries
</metadata>
<defs>
<font id="HelveticaNeueRegular" horiz-adv-x="948" >
<font-face units-per-em="2048" ascent="1638" descent="-410" />
<missing-glyph horiz-adv-x="491" />
<glyph unicode=" "  horiz-adv-x="491" />
<glyph unicode="&#x09;" horiz-adv-x="491" />
<glyph unicode="&#xa0;" horiz-adv-x="491" />
<glyph unicode="!" horiz-adv-x="569" d="M168 0v233h233v-233h-233zM168 999v463h233v-463l-34 -606h-164z" />
<glyph unicode="&#x22;" horiz-adv-x="872" d="M156 877v585h176v-585h-176zM541 877v585h176v-585h-176z" />
<glyph unicode="#" horiz-adv-x="983" d="M-6 410v151h199l40 299h-180v152h201l57 409h170l-57 -409h217l57 409h170l-57 -409h178v-152h-198l-41 -299h180v-151h-201l-57 -410h-170l57 410h-217l-57 -410h-170l57 410h-178zM362 561h218l41 299h-218z" />
<glyph unicode="$" horiz-adv-x="983" d="M33 406v32h233v-32q0 -117 41 -179.5t135 -79.5v476l-84 30q-162 59 -233.5 150.5t-71.5 245.5q0 174 111.5 287.5t277.5 113.5v143h90v-143q90 0 160 -25.5t112 -64.5t69.5 -91t38 -100.5t10.5 -95.5v-29h-234v29q0 184 -156 201v-453l130 -45q150 -55 219 -143t69 -234 q0 -205 -109.5 -311t-308.5 -117v-176h-90v176q-409 23 -409 435zM287 1069q0 -143 155 -213v418q-68 -6 -111.5 -59.5t-43.5 -145.5zM532 147q88 12 136.5 72t48.5 133q0 98 -44 152.5t-141 83.5v-441z" />
<glyph unicode="%" horiz-adv-x="1554" d="M74 1057q0 215 73.5 304t206.5 89t207 -89t74 -304t-74 -304t-207 -89t-206.5 89t-73.5 304zM250 1056.5q0 -147.5 21.5 -206.5t83 -59t83 59t21.5 206.5t-21.5 207t-83 59.5t-83 -59.5t-21.5 -207zM369 -29l649 1479h158l-654 -1479h-153zM920 365q0 215 73.5 304 t206.5 89t207 -89t74 -304t-74 -304.5t-207 -89.5t-206.5 89.5t-73.5 304.5zM1096 364.5q0 -147.5 21.5 -207t83 -59.5t83 59.5t21.5 207t-21.5 207t-83 59.5t-83 -59.5t-21.5 -207z" />
<glyph unicode="&#x26;" horiz-adv-x="1175" d="M43 375q0 229 205 383l92 69l-55 82q-94 147 -95 240q0 152 97.5 232.5t251.5 80.5q47 0 97 -13t103.5 -43t87 -92.5t33.5 -148.5q0 -174 -178 -307l-76 -55l256 -361q57 94 58 224v28h184v-18q0 -80 -28.5 -191.5t-96.5 -205.5l199 -279h-248l-88 125 q-168 -154 -369 -154q-119 0 -208 40t-135 104.5t-66.5 130.5t-20.5 129zM264 391q0 -98 73 -165.5t175 -67.5q123 0 227 112l-297 418l-43 -37q-135 -108 -135 -260zM387 1184q0 -86 86 -203l33 -43l51 47q106 102 107 189q0 63 -37 100t-103 37q-53 0 -95 -30.5t-42 -96.5 z" />
<glyph unicode="'" horiz-adv-x="491" d="M158 877v585h176v-585h-176z" />
<glyph unicode="(" horiz-adv-x="530" d="M76 543q0 264 85 504.5t216 414.5h153q-233 -391 -233 -919q0 -246 58.5 -492t174.5 -428h-157q-131 172 -214 413t-83 507z" />
<glyph unicode=")" horiz-adv-x="530" d="M0 -377q233 391 233 920q0 246 -58 491.5t-175 427.5h158q131 -172 214 -412.5t83 -506.5q0 -264 -85 -505t-216 -415h-154z" />
<glyph unicode="*" horiz-adv-x="757" d="M33 1161l47 135l231 -90v256h140v-254l227 88l47 -135l-233 -67l159 -211l-114 -88l-156 215l-152 -215l-114 88l155 211z" />
<glyph unicode="+" horiz-adv-x="1228" d="M96 430v176h430v430h176v-430h431v-176h-431v-430h-176v430h-430z" />
<glyph unicode="," horiz-adv-x="491" d="M129 0v270h233v-270q0 -131 -53 -211t-180 -104v118q102 27 102 166v31h-102z" />
<glyph unicode="-" horiz-adv-x="720" d="M92 487v209h537v-209h-537z" />
<glyph unicode="." horiz-adv-x="491" d="M129 0v270h233v-270h-233z" />
<glyph unicode="/" horiz-adv-x="606" d="M-20 -29l464 1520h183l-465 -1520h-182z" />
<glyph unicode="0" horiz-adv-x="983" d="M57 710.5q0 405.5 107.5 572.5t327 167t327 -167t107.5 -572.5t-107.5 -572.5t-327 -167t-327 167t-107.5 572.5zM291 710.5q0 -323.5 42 -449.5t158.5 -126t158.5 126t42 449.5t-42 449.5t-158.5 126t-158.5 -126t-42 -449.5z" />
<glyph unicode="1" horiz-adv-x="983" d="M123 1053v151h22q293 0 342 217v29h170v-1450h-233v1053h-301z" />
<glyph unicode="2" horiz-adv-x="983" d="M68 0q0 127 33.5 232.5t87 177t119 133t130 115t117.5 109.5t87 133t34 167q0 96 -44 157.5t-136 61.5q-203 0 -203 -303h-221q0 467 428 467q211 0 310 -107.5t99 -279.5q0 -135 -49 -239.5t-125 -174t-154.5 -131t-150.5 -143.5t-102 -178h587v-197h-847z" />
<glyph unicode="3" horiz-adv-x="983" d="M63 403h222q0 -113 45 -190.5t153 -77.5q102 0 152.5 72t50.5 188q0 139 -53 205t-182 66h-91v163h84q209 0 209 248q0 88 -42 148.5t-126 60.5q-184 0 -184 -254h-221q0 205 105.5 311.5t312.5 106.5q72 0 135 -17.5t122.5 -57.5t95.5 -115.5t36 -180.5 q0 -117 -63.5 -209t-168.5 -108v-6q117 -10 191 -99.5t74 -236.5q0 -219 -111 -334t-332 -115q-414 0 -414 432z" />
<glyph unicode="4" horiz-adv-x="983" d="M43 326v200l502 924h237v-938h158v-186h-158v-326h-221v326h-518zM231 512h330v598h-4z" />
<glyph unicode="5" horiz-adv-x="983" d="M66 360v31h221v-39q0 -88 49 -146.5t141 -58.5q207 0 207 330q0 309 -195 309q-74 0 -124 -35.5t-66 -97.5l-207 9l72 759h698v-186h-524l-47 -381l4 -4q100 113 244 113q109 0 186.5 -42t117.5 -115t57.5 -152t17.5 -171q0 -231 -111 -371.5t-336 -140.5 q-195 0 -300 99.5t-105 289.5z" />
<glyph unicode="6" horiz-adv-x="983" d="M51 666q0 176 19.5 307t67.5 244.5t142.5 173t233.5 59.5q391 0 391 -352h-233q0 74 -38 131t-118 57q-78 0 -128 -45t-70.5 -130t-26.5 -154.5t-6 -170.5l6 -4q84 154 282 154q156 0 257.5 -111.5t101.5 -320.5q0 -532 -445 -533q-133 0 -222 48.5t-134 145.5t-62.5 214 t-17.5 287zM305 436q0 -133 51.5 -217t149.5 -84q193 0 192 311q0 313 -192 314q-117 0 -159 -86t-42 -238z" />
<glyph unicode="7" horiz-adv-x="983" d="M61 1212v209h861v-184q-174 -227 -303.5 -571t-153.5 -666h-246q25 311 160 645t317 567h-635z" />
<glyph unicode="8" horiz-adv-x="983" d="M53 406q0 156 67.5 247.5t180.5 114.5v4q-201 70 -201 313q0 168 104.5 266.5t287 98.5t287 -98.5t104.5 -266.5q0 -244 -201 -313v-4q113 -23 180.5 -115t67.5 -247q0 -434 -438.5 -434t-438.5 434zM287 410q0 -274 204.5 -274.5t204.5 274.5q0 129 -45 201.5 t-159.5 72.5t-159.5 -72.5t-45 -201.5zM309 1069q0 -221 182.5 -221t182.5 221q0 217 -182.5 217t-182.5 -217z" />
<glyph unicode="9" horiz-adv-x="983" d="M51 918q0 532 445 532q133 0 222 -48t134 -145.5t62.5 -214t17.5 -286.5q0 -176 -19.5 -307.5t-67.5 -245t-142.5 -173t-233.5 -59.5q-391 0 -391 353h233q0 -74 38 -131.5t118 -57.5q78 0 128 45t70.5 130t26.5 155t6 170l-6 4q-84 -154 -282 -154q-156 0 -257.5 112 t-101.5 321zM285 975q0 -313 192 -313q117 0 159 86t42 237q0 133 -51.5 217t-149.5 84q-192 0 -192 -311z" />
<glyph unicode=":" horiz-adv-x="491" d="M129 0v270h233v-270h-233zM129 778v271h233v-271h-233z" />
<glyph unicode=";" horiz-adv-x="491" d="M129 0v270h233v-270q0 -131 -53 -211t-180 -104v118q102 27 102 166v31h-102zM129 778v271h233v-271h-233z" />
<glyph unicode="&#x3c;" horiz-adv-x="1228" d="M96 442v152l1037 463v-176l-828 -363l828 -362v-176z" />
<glyph unicode="=" horiz-adv-x="1228" d="M96 217v176h1037v-176h-1037zM96 643v176h1037v-176h-1037z" />
<glyph unicode="&#x3e;" horiz-adv-x="1228" d="M96 -20v176l828 362l-828 363v176l1037 -463v-152z" />
<glyph unicode="?" d="M72 1026q0 209 97 337t306 128q190 0 296 -102.5t106 -290.5q0 -96 -33 -176t-80 -132.5t-95 -99.5t-81 -100t-33 -111v-86h-209v123q0 82 31 144.5t74 104.5t87 84t74.5 104.5t30.5 144.5q0 217 -166 217q-184 0 -184 -289h-221zM332 0v233h233v-233h-233z" />
<glyph unicode="@" horiz-adv-x="1638" d="M59 733q0 324 221.5 541t571.5 217q313 0 520 -175t207 -450q0 -117 -35 -217t-91 -166.5t-126 -113.5t-138.5 -67.5t-129.5 -20.5q-74 0 -110 32.5t-34 87.5h-4q-109 -121 -254 -120q-121 0 -202.5 91t-81.5 240q0 217 139 383t317 166q158 0 236 -157l39 120h145 l-153 -553q-23 -90 -23 -100q0 -45 68 -45q90 0 171 125t81 289q0 213 -160 350t-381 137q-262 0 -434 -178t-172 -424q0 -262 173 -426t417 -164q322 0 505 180h172q-86 -156 -261 -250t-416 -94q-336 0 -556.5 206t-220.5 556zM549 639q0 -96 47 -151.5t143 -55.5 q100 0 182.5 130t82.5 251q0 197 -166 197q-121 0 -205 -119t-84 -252z" />
<glyph unicode="A" horiz-adv-x="1062" d="M-18 0l415 1462h299l385 -1462h-243l-90 358h-429l-94 -358h-243zM362 545h347l-168 721h-4z" />
<glyph unicode="B" horiz-adv-x="1099" d="M121 0v1462h473q176 0 284.5 -86t108.5 -268q0 -264 -215 -332v-4q127 -23 194.5 -110t67.5 -263q0 -182 -121.5 -290.5t-328.5 -108.5h-463zM354 176h232q104 0 159.5 66.5t55.5 191.5q0 117 -63.5 182.5t-166.5 65.5h-217v-506zM354 846h185q104 0 159.5 62.5 t55.5 168.5q0 121 -61.5 165t-174.5 44h-164v-440z" />
<glyph unicode="C" horiz-adv-x="1062" d="M86 731.5q0 403.5 107.5 581.5t377.5 178q440 0 441 -459v-26h-234v24q0 123 -47 206q-45 79 -151 79h-11q-90 0 -142 -45t-80 -173t-28 -360q0 -340 57.5 -465t192.5 -125q217 0 217 353v24h234v-30q0 -104 -22.5 -193.5t-73 -166.5t-140.5 -120t-215 -43 q-270 0 -376.5 178.5t-106.5 582z" />
<glyph unicode="D" horiz-adv-x="1138" d="M121 0v1462h416q135 0 230 -35.5t150.5 -95t86 -158t40 -199t9.5 -243.5t-9.5 -243.5t-40 -199t-86 -157.5t-150.5 -95t-230 -36h-416zM354 176h193q147 0 209.5 121t62.5 434q0 309 -60.5 432t-211.5 123h-193v-1110z" />
<glyph unicode="E" horiz-adv-x="985" d="M121 0v1462h790v-196h-557v-406h525v-196h-525v-467h574v-197h-807z" />
<glyph unicode="F" d="M121 0v1462h780v-196h-547v-406h514v-196h-514v-664h-233z" />
<glyph unicode="G" horiz-adv-x="1099" d="M86 731q0 393 116.5 576.5t368.5 183.5q104 0 184.5 -32t125.5 -78t72.5 -106.5t36.5 -109.5t9 -96v-27h-221v35q0 96 -48 167t-157 71q-133 0 -193.5 -122t-60.5 -456q0 -340 55.5 -465t180.5 -125h5q129 0 183 102q55 103 56 345h-246v176h467v-770h-176v170h-4 q-49 -104 -122 -151.5t-198 -47.5q-236 0 -335 180.5t-99 579.5z" />
<glyph unicode="H" horiz-adv-x="1138" d="M121 0v1462h233v-585h430v585h234v-1462h-234v680h-430v-680h-233z" />
<glyph unicode="I" horiz-adv-x="454" d="M111 0v1462h233v-1462h-233z" />
<glyph unicode="J" horiz-adv-x="909" d="M33 346v94h221v-71q0 -104 32.5 -161.5t123.5 -60.5q45 0 75.5 17.5t46 40t23.5 68.5t9 76t1 89v1024h234v-1059q0 -229 -104 -331q-101 -100 -282 -101h-7q-365 2 -373 375z" />
<glyph unicode="K" horiz-adv-x="1062" d="M121 0v1462h233v-637h4l443 637h256l-422 -616l467 -846h-264l-355 657l-129 -184v-473h-233z" />
<glyph unicode="L" horiz-adv-x="909" d="M94 0v1462h234v-1265h565v-197h-799z" />
<glyph unicode="M" horiz-adv-x="1478" d="M121 0v1462h364l258 -1083h5l253 1083h357v-1462h-221v1217h-4l-295 -1217h-197l-295 1217h-4v-1217h-221z" />
<glyph unicode="N" horiz-adv-x="1175" d="M121 0v1462h285l423 -1089h5v1089h221v-1462h-285l-424 1118h-4v-1118h-221z" />
<glyph unicode="O" horiz-adv-x="1138" d="M86 731q0 393 115.5 576.5t367.5 183.5t368 -183.5t116 -576.5t-116 -576.5t-368 -183.5t-367.5 183.5t-115.5 576.5zM319 737q0 -182 18.5 -303t55.5 -181t78 -83t98.5 -23t98.5 23t77.5 83t55 181t18.5 303q0 178 -18.5 297t-55 177.5t-77.5 81t-98.5 22.5t-98.5 -22.5 t-78 -81t-55.5 -177.5t-18.5 -297z" />
<glyph unicode="P" horiz-adv-x="1024" d="M121 0v1462h463q203 0 303 -114.5t100 -311.5q0 -199 -112.5 -315.5t-315.5 -116.5h-205v-604h-233zM354 780h166q102 0 168 61.5t66 190.5q0 125 -58.5 189.5t-191.5 64.5h-150v-506z" />
<glyph unicode="Q" horiz-adv-x="1138" d="M86 731q0 393 115.5 576.5t367.5 183.5t368 -183.5t116 -576.5t-115 -579l149 -158l-139 -125l-149 151q-84 -49 -230 -49q-252 0 -367.5 183.5t-115.5 576.5zM319 737q0 -182 18.5 -303t55.5 -181t78 -83t98 -23q47 0 84 15l-110 108l133 133l96 -96q47 127 47 430 q0 178 -18.5 297t-55 177.5t-77.5 81t-98.5 22.5t-98.5 -22.5t-78 -81t-55.5 -177.5t-18.5 -297z" />
<glyph unicode="R" horiz-adv-x="1099" d="M121 0v1462h516q166 0 268.5 -91t102.5 -286q0 -145 -63.5 -242.5t-180.5 -115.5v-4q113 -10 168 -80t61 -219q4 -227 8 -297q4 -84 70 -127h-264q-29 35 -39 129q-4 39 -5 82t-2 100.5t-3 94.5q-4 123 -50 176t-163 53h-191v-635h-233zM354 811h187q111 0 172 63.5 t61 174.5q0 238 -221 237h-199v-475z" />
<glyph unicode="S" horiz-adv-x="1062" d="M68 418v35h233v-37q0 -268 240 -269q104 0 162.5 62.5t58.5 150.5q0 111 -52.5 170.5t-156.5 90.5l-160 55q-162 61 -233.5 153.5t-71.5 247.5q0 197 123 305.5t332 108.5q106 0 186 -26.5t122 -64.5t67.5 -94.5t31.5 -101.5t6 -98v-33h-233v31q0 211 -205 211 q-84 0 -140 -51.5t-56 -159.5q0 -92 50 -147.5t169 -100.5l157 -57q156 -55 226.5 -146.5t70.5 -240.5q0 -440 -483 -441q-129 0 -221 40t-138.5 108.5t-65.5 141.5t-19 157z" />
<glyph unicode="T" d="M12 1266v196h924v-196h-342v-1266h-234v1266h-348z" />
<glyph unicode="U" horiz-adv-x="1099" d="M102 432v1030h234v-1048q0 -266 215 -267q213 0 213 267v1048h233v-1030q0 -244 -113.5 -352.5t-332.5 -108.5t-334 108.5t-115 352.5z" />
<glyph unicode="V" horiz-adv-x="985" d="M-12 1462h248l247 -1167h4l263 1167h247l-368 -1462h-297z" />
<glyph unicode="W" horiz-adv-x="1517" d="M12 1462h236l192 -1136h4l193 1136h246l196 -1143h4l191 1143h231l-291 -1462h-270l-188 1102h-4l-187 -1102h-270z" />
<glyph unicode="X" horiz-adv-x="1024" d="M0 0l385 743l-352 719h258l233 -485l230 485h252l-355 -719l373 -743h-258l-254 528l-260 -528h-252z" />
<glyph unicode="Y" horiz-adv-x="985" d="M-8 1462h260l246 -631l252 631h243l-391 -891v-571h-233v571z" />
<glyph unicode="Z" d="M37 0v184l612 1082h-575v196h831v-196l-612 -1069h618v-197h-874z" />
<glyph unicode="[" horiz-adv-x="569" d="M158 -377v1839h415v-164h-206v-1511h206v-164h-415z" />
<glyph unicode="\" horiz-adv-x="606" d="M-20 1491h182l465 -1520h-183z" />
<glyph unicode="]" horiz-adv-x="569" d="M-4 -213h207v1511h-207v164h416v-1839h-416v164z" />
<glyph unicode="^" horiz-adv-x="1228" d="M117 573l418 848h155l422 -848h-176l-322 672l-321 -672h-176z" />
<glyph unicode="_" horiz-adv-x="1024" d="M0 -154h1024v-102h-1024v102z" />
<glyph unicode="`" horiz-adv-x="454" d="M-29 1540h246l123 -295h-152z" />
<glyph unicode="a" d="M63 281q0 168 61.5 235.5t194.5 110.5l173 47q70 18 99.5 47t29.5 94q0 80 -34 122t-118 42q-100 0 -134 -56.5t-34 -154.5h-209q0 182 88 272t299 90q158 0 254 -65.5t96 -204.5v-631q0 -31 16.5 -54t41 -23t37.5 6v-144q-57 -27 -109 -26q-178 0 -186 145h-4 q-88 -162 -275 -162q-135 0 -211 78t-76 232zM285 301q0 -74 35.5 -120t101.5 -46q98 0 148.5 68.5t50.5 193.5v185q-33 -27 -132.5 -62t-113.5 -41q-90 -43 -90 -178z" />
<glyph unicode="b" horiz-adv-x="985" d="M106 0v1462h222v-489h4q66 158 250 157q72 0 126 -20t106 -76.5t80 -174.5t28 -294q0 -293 -86 -443.5t-275 -150.5q-176 0 -242 164h-4v-135h-209zM315 539q0 -195 40 -293.5t147 -98.5q109 0 147.5 101.5t38.5 306.5q0 223 -38 311t-134 88q-119 0 -160 -99t-41 -316z " />
<glyph unicode="c" horiz-adv-x="909" d="M63 550.5q0 278.5 92.5 429t317.5 150.5q6 0 13 1q87 0 153 -27q72 -29 110.5 -71t63.5 -99t32 -103.5t7 -95.5h-221q0 96 -35 165q-34 67 -118 67h-5q-111 0 -149.5 -104.5t-38.5 -311.5t38.5 -311.5t149.5 -104.5h5q84 0 123 67q40 69 40 199h209q-12 -211 -97 -320.5 t-280 -109.5q-225 0 -317.5 150.5t-92.5 429z" />
<glyph unicode="d" horiz-adv-x="985" d="M63 565q0 176 28 294t80 174.5t106.5 76.5t125.5 20q184 0 250 -157h4v489h222v-1462h-209v135h-4q-66 -164 -242 -164q-188 0 -274.5 150.5t-86.5 443.5zM297 555q0 -205 39 -306.5t147 -101.5q106 0 146.5 98.5t40.5 293.5q0 217 -41 316t-160 99q-96 0 -134 -88 t-38 -311z" />
<glyph unicode="e" d="M76 535q0 121 16.5 217t57 187t125.5 141t208 50q219 0 304 -121.5t85 -369.5v-117h-575v-63q0 -66 6 -117t23.5 -105.5t56.5 -84t98 -29.5q55 0 93 27.5t54.5 71.5t22.5 79t6 68h209q0 -182 -103.5 -290t-283.5 -108q-63 0 -112.5 9.5t-106.5 43t-95 92t-63.5 165.5 t-25.5 254zM297 674h354v59q0 246 -170 246q-98 0 -141 -80t-43 -203v-22z" />
<glyph unicode="f" horiz-adv-x="569" d="M20 938v164h154v102q0 152 69.5 213.5t211.5 61.5q72 0 120 -6v-170h-61q-119 0 -119 -105v-96h180v-164h-180v-938h-221v938h-154z" />
<glyph unicode="g" horiz-adv-x="985" d="M90 563q0 109 11.5 194t45 177t108.5 144t185 52q92 0 159 -49t83 -114h4v135h209v-1049q0 -430 -412 -430q-115 0 -193.5 30t-112.5 79t-46 90t-12 84h209q0 -53 44 -92t115 -39q86 0 136.5 55t50.5 152v178h-4q-31 -70 -99.5 -111t-150.5 -41q-330 0 -330 555zM311 586 q0 -70 2 -116t11.5 -105.5t27 -94t51 -60.5t80.5 -26q61 0 102.5 35t59 98.5t23.5 122t6 135.5q0 379 -176 379q-57 0 -96.5 -27.5t-57.5 -81.5t-25.5 -113.5t-7.5 -145.5z" />
<glyph unicode="h" horiz-adv-x="985" d="M106 0v1462h222v-479l6 -4q98 152 270 151q133 0 204 -69.5t71 -229.5v-831h-222v756q0 106 -34.5 152t-118.5 46q-74 0 -125 -56t-51 -159v-739h-222z" />
<glyph unicode="i" horiz-adv-x="454" d="M117 0v1102h221v-1102h-221zM117 1257v222h221v-222h-221z" />
<glyph unicode="j" horiz-adv-x="454" d="M-49 -201h51q63 0 89 32t26 118v1153h221v-1174q0 -168 -69.5 -236.5t-221.5 -68.5q-47 0 -96 6v170zM117 1257v222h221v-222h-221z" />
<glyph unicode="k" d="M106 0v1462h222v-821h4l334 461l256 2l-332 -426l375 -678h-242l-270 502l-125 -152v-350h-222z" />
<glyph unicode="l" horiz-adv-x="454" d="M117 0v1462h221v-1462h-221z" />
<glyph unicode="m" horiz-adv-x="1515" d="M117 0v1102h209v-129h6q41 74 112.5 115.5t151.5 41.5q197 0 256 -167q100 168 278 167q268 0 269 -292v-838h-221v756q0 106 -32 152t-102 46q-74 0 -125 -56t-51 -159v-739h-221v756q0 106 -32.5 152t-102.5 46q-72 0 -123 -56t-51 -159v-739h-221z" />
<glyph unicode="n" horiz-adv-x="985" d="M106 0v1102h209v-129h7q41 74 115.5 115.5t166.5 41.5q133 0 204 -69.5t71 -229.5v-831h-222v756q0 106 -34.5 152t-118.5 46q-74 0 -125 -56t-51 -159v-739h-222z" />
<glyph unicode="o" d="M63 551q0 279 92.5 429t317.5 150q227 0 319.5 -150.5t92.5 -428.5q0 -580 -412 -580q-410 0 -410 580zM285 551q0 -225 37.5 -320.5t150.5 -95.5q115 0 153 95.5t38 320.5q0 207 -39 311.5t-152 104.5q-111 0 -149.5 -104.5t-38.5 -311.5z" />
<glyph unicode="p" horiz-adv-x="985" d="M106 -360v1462h209v-135h4q76 164 248 163q354 0 355 -593q0 -166 -31 -283t-84 -175.5t-107.5 -83t-117.5 -24.5q-184 0 -250 158h-4v-489h-222zM315 563q0 -215 39 -315.5t150 -100.5q98 0 141 88.5t43 311.5q0 205 -39 306t-147 101q-106 0 -146.5 -98t-40.5 -293z " />
<glyph unicode="q" horiz-adv-x="985" d="M63 537q0 293 86.5 443t274.5 150q176 0 242 -163h4v135h209v-1462h-222v489h-4q-66 -158 -252 -158q-150 0 -244 128.5t-94 437.5zM297 547q0 -217 42 -308.5t130 -91.5q119 0 160 99.5t41 316.5q0 195 -40 293t-147 98q-109 0 -147.5 -101t-38.5 -306z" />
<glyph unicode="r" horiz-adv-x="645" d="M106 0v1102h222v-172h4q80 201 256 200q25 0 53 -8v-225q-49 12 -92 12q-92 0 -156.5 -55t-64.5 -195v-659h-222z" />
<glyph unicode="s" horiz-adv-x="872" d="M57 313v41h197v-35q0 -98 40 -147t132 -49q180 0 180 162q0 121 -121 161l-180 64q-127 43 -181 114.5t-54 202.5q0 152 100 227.5t276 75.5q190 0 267.5 -88t77.5 -213v-49h-209v29q0 170 -146 170q-72 0 -114.5 -35t-42.5 -108q0 -63 32.5 -97t122.5 -65l141 -49 q125 -43 182.5 -116t57.5 -202q0 -168 -108.5 -252t-286.5 -84q-199 0 -281 86t-82 256z" />
<glyph unicode="t" horiz-adv-x="569" d="M8 938v164h152v313h221v-313h180v-164h-180v-657q0 -66 21.5 -91.5t78.5 -25.5q49 0 80 6v-164q-70 -18 -178 -18q-121 0 -172 53t-51 213v684h-152z" />
<glyph unicode="u" horiz-adv-x="985" d="M106 332v770h222v-791q0 -88 37.5 -126t111.5 -38q76 0 128 48.5t52 136.5v770h222v-1102h-209v129h-6q-41 -74 -116 -116t-167 -42q-133 0 -204 80t-71 281z" />
<glyph unicode="v" horiz-adv-x="872" d="M14 1102h238l192 -869h5l174 869h235l-291 -1102h-258z" />
<glyph unicode="w" horiz-adv-x="1402" d="M31 1102h229l154 -869h4l164 869h249l164 -869h4l152 869h221l-252 -1102h-248l-172 856h-4l-157 -856h-258z" />
<glyph unicode="x" horiz-adv-x="872" d="M6 0l301 571l-284 531h241l172 -365l180 365h238l-287 -531l299 -571h-239l-193 408l-192 -408h-236z" />
<glyph unicode="y" horiz-adv-x="872" d="M16 1102h238l190 -828h5l176 828h231l-303 -1143q-63 -219 -136 -280q-68 -57 -227 -56h-22q-31 0 -88 8v176q49 -8 72 -8q61 0 96 18.5t53 67.5l29 90z" />
<glyph unicode="z" horiz-adv-x="833" d="M51 0v172l481 743h-452v187h702v-182l-463 -734h463v-186h-731z" />
<glyph unicode="{" horiz-adv-x="569" d="M14 475v135q68 4 117 65.5t49 143.5v375q0 125 66.5 196.5t161.5 71.5h147v-127h-68q-55 0 -76.5 -35.5t-21.5 -105.5v-375q0 -125 -63.5 -192.5t-124.5 -81.5v-4q61 -14 124.5 -82t63.5 -193v-375q0 -70 21.5 -105.5t76.5 -35.5h68v-127h-147q-94 0 -161 72t-67 196v375 q0 82 -49 143.5t-117 65.5z" />
<glyph unicode="|" horiz-adv-x="454" d="M139 -29v1520h176v-1520h-176z" />
<glyph unicode="}" horiz-adv-x="569" d="M14 -250h68q55 0 76.5 36t21.5 105v375q0 125 63.5 192.5t125.5 82.5v4q-61 14 -125 81.5t-64 192.5v375q0 70 -21.5 105.5t-76.5 35.5h-68v127h148q94 0 160.5 -71.5t66.5 -196.5v-375q0 -82 49 -143.5t117 -65.5v-135q-68 -4 -117 -65.5t-49 -143.5v-375 q0 -125 -66.5 -196.5t-160.5 -71.5h-148v127z" />
<glyph unicode="~" horiz-adv-x="1228" d="M141 502q43 86 112 132t144 46q82 0 238 -76q152 -72 199 -72q92 0 180 158l73 -155q-104 -178 -256 -179q-82 0 -237 76q-152 72 -199 72q-92 0 -180 -158z" />
<glyph unicode="&#xa1;" horiz-adv-x="569" d="M168 102l35 607h164l34 -607v-462h-233v462zM168 868v234h233v-234h-233z" />
<glyph unicode="&#xa2;" horiz-adv-x="983" d="M98 551q0 264 81 413.5t280 165.5v154h90v-154q102 -6 174 -49t104.5 -108.5t45 -121.5t12.5 -116h-221q0 207 -115 232v-832q127 37 127 266h209q-12 -201 -88 -309t-248 -121v-180h-90v180q-199 16 -280 166t-81 414zM319 551q0 -180 29 -283.5t111 -132.5v832 q-82 -25 -111 -129.5t-29 -286.5z" />
<glyph unicode="&#xa3;" horiz-adv-x="983" d="M25 145l36 27q213 154 213 338q0 57 -36 135h-201v139h141l-35 72q-68 127 -67 227q0 147 110.5 257t313.5 110q225 0 329.5 -113.5t104.5 -283.5v-25h-221v23q0 88 -46 161.5t-157 73.5q-92 0 -146.5 -48t-54.5 -128q0 -106 66 -231l47 -95h340v-139h-287 q20 -57 21 -121q0 -109 -62.5 -188.5t-177.5 -165.5l4 -8q78 47 150 47q41 0 131 -31t125 -31q59 0 153 54l62 32l77 -161l-40 -25q-131 -78 -261 -76q-70 2 -184.5 41t-171.5 39q-76 0 -195 -63z" />
<glyph unicode="&#xa4;" horiz-adv-x="983" d="M12 322l105 104q-96 129 -97 285q0 162 97 284l-105 105l92 92l105 -105q127 94 282.5 94.5t282.5 -94.5l105 105l92 -92l-105 -107q96 -127 96.5 -282.5t-96.5 -282.5l105 -106l-92 -93l-107 107q-123 -96 -280 -96q-156 0 -283 96l-105 -107zM184 710.5 q0 -135.5 89 -227.5t218.5 -92t218.5 92t89 227.5t-89 227.5t-218.5 92t-218.5 -92t-89 -227.5z" />
<glyph unicode="&#xa5;" horiz-adv-x="983" d="M4 1421h254l234 -581l243 581h244l-301 -667h205v-140h-267l-22 -47v-96h289v-139h-289v-332h-221v332h-289v139h289v96l-21 47h-268v140h207z" />
<glyph unicode="&#xa6;" horiz-adv-x="454" d="M139 -29v568h176v-568h-176zM139 924v567h176v-567h-176z" />
<glyph unicode="&#xa7;" horiz-adv-x="985" d="M49 645q0 182 191 291q-131 74 -131 235q0 152 108.5 236t276.5 84q106 0 183 -29.5t117 -80t57 -102.5t17 -110h-221q0 158 -160 158q-70 0 -113.5 -38t-43.5 -95q0 -47 35.5 -87t119.5 -87l277 -154q174 -98 174 -305q0 -178 -164 -285q117 -96 117 -237 q0 -172 -107.5 -265t-281.5 -93q-195 0 -295.5 102t-100.5 272h222q0 -199 174 -198q68 0 111.5 41t43.5 112q0 70 -38.5 111t-112.5 82l-234 127q-221 120 -221 315zM246 672q0 -51 33.5 -84t121.5 -84l234 -137l33 24q72 61 71 146q0 98 -121 172l-243 141l-27 -23 q-102 -71 -102 -155z" />
<glyph unicode="&#xa8;" horiz-adv-x="454" d="M-41 1286v221h197v-221h-197zM299 1286v221h197v-221h-197z" />
<glyph unicode="&#xa9;" horiz-adv-x="1638" d="M59 731.5q0 315.5 222.5 537.5t538 222t537.5 -222t222 -537.5t-222 -538t-537.5 -222.5t-538 222.5t-222.5 538zM246 731q0 -248 168 -422t405.5 -174t405.5 174t168 422t-168 422t-405.5 174t-405.5 -174t-168 -422zM414 733q0 209 115.5 333t312.5 124 q143 0 244.5 -83t121.5 -230h-164q-16 74 -70 119.5t-136 41.5q-117 0 -182.5 -86t-65.5 -219q0 -135 67.5 -221t188.5 -86q78 0 133 47t65 125h170q-27 -152 -131 -238t-256 -86q-186 0 -299.5 125t-113.5 334z" />
<glyph unicode="&#xaa;" horiz-adv-x="647" d="M16 936q0 104 43 145t146 68l106 27q49 12 70.5 28.5t21.5 57.5q0 74 -94 73q-109 0 -108 -102h-152q0 111 62.5 164t216.5 53q240 0 239 -162v-362q0 -47 35 -47q12 0 29 4v-117q-66 -14 -84 -14q-121 0 -127 96h-6q-63 -96 -197 -96q-201 0 -201 184zM193 952 q0 -29 23.5 -51t62.5 -22q55 0 89.5 34.5t34.5 90.5v116q-20 -14 -82.5 -34.5t-76.5 -28.5q-51 -25 -51 -105z" />
<glyph unicode="&#xab;" horiz-adv-x="833" d="M102 475v234l295 276v-225l-180 -168l180 -168v-225zM436 475v234l295 276v-225l-180 -168l180 -168v-225z" />
<glyph unicode="&#xac;" horiz-adv-x="1228" d="M96 643v176h1037v-602h-177v426h-860z" />
<glyph unicode="&#xad;" horiz-adv-x="720" d="M92 487v209h537v-209h-537z" />
<glyph unicode="&#xae;" horiz-adv-x="1638" d="M59 731.5q0 315.5 222.5 537.5t538 222t537.5 -222t222 -537.5t-222 -538t-537.5 -222.5t-538 222.5t-222.5 538zM246 731q0 -248 168 -422t405.5 -174t405.5 174t168 422t-168 422t-405.5 174t-405.5 -174t-168 -422zM492 297v868h337q164 0 245 -60.5t81 -189.5 q0 -205 -223 -245l237 -373h-176l-221 367h-129v-367h-151zM643 791h156q47 0 78.5 4t63.5 16t47.5 40t15.5 71q0 117 -193 116h-168v-247z" />
<glyph unicode="&#xaf;" horiz-adv-x="454" d="M-61 1335v127h577v-127h-577z" />
<glyph unicode="&#xb0;" horiz-adv-x="819" d="M104 1145q0 125 89.5 215t216.5 90t216 -90t89 -215t-89 -215t-216 -90t-216.5 90t-89.5 215zM244 1144.5q0 -69.5 48 -117.5t117.5 -48t117.5 48t48 117.5t-48 118t-117.5 48.5t-117.5 -48.5t-48 -118z" />
<glyph unicode="&#xb1;" horiz-adv-x="1228" d="M96 0v176h1037v-176h-1037zM96 551v176h430v309h176v-309h431v-176h-431v-309h-176v309h-430z" />
<glyph unicode="&#xb2;" horiz-adv-x="641" d="M33 573q0 113 41 197t99 132t116.5 89t99.5 93.5t41 119.5q0 119 -104 119q-115 0 -115 -156h-176q0 283 293 283q279 0 278 -233q0 -78 -31.5 -138.5t-82 -101.5t-102.5 -77t-101 -84t-70 -103h379v-140h-565z" />
<glyph unicode="&#xb3;" horiz-adv-x="641" d="M20 819h177q0 -47 28.5 -90t92 -43t95 42t31.5 103q0 133 -145 134h-61v127h55q66 0 97.5 35.5t31.5 84.5q0 43 -26.5 77t-76.5 34q-55 0 -81.5 -39t-26.5 -86h-176q0 121 80 186.5t217 65.5q106 0 186 -56.5t80 -164.5q0 -68 -48 -125t-116 -68v-4q82 -4 134.5 -58 t52.5 -145q0 -127 -85 -198.5t-219 -71.5q-152 0 -224.5 62.5t-72.5 197.5z" />
<glyph unicode="&#xb4;" horiz-adv-x="454" d="M115 1245l123 295h245l-217 -295h-151z" />
<glyph unicode="&#xb5;" horiz-adv-x="985" d="M106 -360v1462h222v-756q0 -106 34.5 -152.5t118.5 -46.5q72 0 124 56.5t52 158.5v740h222v-1102h-209v129h-6q-41 -74 -104.5 -116t-129 -42t-102.5 37v-368h-222z" />
<glyph unicode="&#xb6;" horiz-adv-x="1228" d="M109 1077q0 199 125.5 292t351.5 93h508v-1753h-187v1614h-227v-1614h-186v996q-160 0 -272.5 106t-112.5 266z" />
<glyph unicode="&#xb7;" horiz-adv-x="491" d="M98 630.5q0 61.5 43 104.5t104.5 43t104.5 -43t43 -104.5t-43 -104.5t-104.5 -43t-104.5 43t-43 104.5z" />
<glyph unicode="&#xb8;" horiz-adv-x="454" d="M10 -408l33 82q72 -27 135 -26q115 0 115 78q0 35 -27.5 56t-66.5 21q-23 0 -78 -16l-37 35l113 178h102l-84 -117q51 10 82 11q68 0 114 -45.5t46 -106.5q0 -82 -69 -133t-171 -51q-115 -1 -207 34z" />
<glyph unicode="&#xb9;" horiz-adv-x="641" d="M82 1198v115h14q193 0 223 121v16h123v-877h-176v625h-184z" />
<glyph unicode="&#xba;" horiz-adv-x="647" d="M29 1098q0 172 66.5 262t228 90t228 -90t66.5 -262q0 -166 -66.5 -256t-228 -90t-228 90t-66.5 256zM205 1098q0 -219 118.5 -219t118.5 219q0 106 -24.5 165.5t-94 59.5t-94 -59.5t-24.5 -165.5z" />
<glyph unicode="&#xbb;" horiz-adv-x="833" d="M102 199v225l181 168l-181 168v225l295 -276v-234zM436 199v225l180 168l-180 168v225l295 -276v-234z" />
<glyph unicode="&#xbc;" horiz-adv-x="1476" d="M20 1198v115h15q193 0 223 121v16h123v-877h-176v625h-185zM152 -63l862 1548h151l-862 -1548h-151zM780 193v124l324 560h176v-570h102v-114h-102v-193h-164v193h-336zM901 307h215v373h-4z" />
<glyph unicode="&#xbd;" horiz-adv-x="1476" d="M20 1198v115h15q193 0 223 121v16h123v-877h-176v625h-185zM152 -63l862 1548h151l-862 -1548h-151zM842 0q0 113 41 197t99 132t116.5 89t99.5 93t41 120q0 119 -104 119q-115 0 -115 -156h-176q0 283 293 283q279 0 278 -234q0 -78 -31.5 -138.5t-82 -101.5 t-102.5 -76.5t-101 -83.5t-70 -104h379v-139h-565z" />
<glyph unicode="&#xbe;" horiz-adv-x="1476" d="M-33 819h176q0 -47 29 -90t92.5 -43t95 42t31.5 103q0 133 -145 134h-62v127h56q66 0 97.5 35.5t31.5 84.5q0 43 -27 77t-76 34q-55 0 -81.5 -39t-26.5 -86h-176q0 121 79.5 186.5t217.5 65.5q106 0 186 -56.5t80 -164.5q0 -68 -48 -125t-116 -68v-4q82 -4 134 -58 t52 -145q0 -127 -85 -198.5t-218 -71.5q-152 0 -224.5 62.5t-72.5 197.5zM221 -63l862 1548h152l-862 -1548h-152zM780 193v124l324 560h176v-570h102v-114h-102v-193h-164v193h-336zM901 307h215v373h-4z" />
<glyph unicode="&#xbf;" d="M72 4q0 96 32.5 176t79.5 132.5t95.5 99.5t81 100t32.5 111v86h209v-123q0 -82 -30.5 -144.5t-74.5 -104.5t-87 -84t-74 -104.5t-31 -144.5q0 -217 166 -217q184 0 184 289h222q0 -209 -97.5 -337t-306.5 -128q-190 0 -295.5 102.5t-105.5 290.5zM383 868v234h233v-234 h-233z" />
<glyph unicode="&#xc0;" horiz-adv-x="1062" d="M-18 0l415 1462h299l385 -1462h-243l-90 358h-429l-94 -358h-243zM291 1839h246l122 -295h-151zM362 545h347l-168 721h-4z" />
<glyph unicode="&#xc1;" horiz-adv-x="1062" d="M-18 0l415 1462h299l385 -1462h-243l-90 358h-429l-94 -358h-243zM362 545h347l-168 721h-4zM434 1544l123 295h246l-217 -295h-152z" />
<glyph unicode="&#xc2;" horiz-adv-x="1062" d="M-18 0l415 1462h299l385 -1462h-243l-90 358h-429l-94 -358h-243zM252 1544l186 295h221l183 -295h-187l-110 180l-117 -180h-176zM362 545h347l-168 721h-4z" />
<glyph unicode="&#xc3;" horiz-adv-x="1062" d="M-18 0l415 1462h299l385 -1462h-243l-90 358h-429l-94 -358h-243zM238 1559q0 84 52 164.5t154 80.5q27 0 109 -35q78 -37 115 -36q61 0 61 77h127q0 -80 -48 -160.5t-128 -80.5q-49 0 -133 35.5t-113 35.5q-33 0 -51 -24.5t-18 -56.5h-127zM362 545h347l-168 721h-4z " />
<glyph unicode="&#xc4;" horiz-adv-x="1062" d="M-18 0l415 1462h299l385 -1462h-243l-90 358h-429l-94 -358h-243zM279 1585v221h196v-221h-196zM362 545h347l-168 721h-4zM618 1585v221h197v-221h-197z" />
<glyph unicode="&#xc5;" horiz-adv-x="1062" d="M-18 0l415 1462h299l385 -1462h-243l-90 358h-429l-94 -358h-243zM330 1730.5q0 90.5 63.5 154t153.5 63.5t153.5 -63.5t63.5 -154t-63.5 -154t-153.5 -63.5t-153.5 63.5t-63.5 154zM362 545h347l-168 721h-4zM432 1730.5q0 -47.5 34 -81t81 -33.5t81 33.5t34 81t-34 81 t-81 33.5t-81 -33.5t-34 -81z" />
<glyph unicode="&#xc6;" horiz-adv-x="1517" d="M-25 0l560 1462h895v-196h-519v-406h490v-196h-490v-467h537v-197h-758v358h-342l-129 -358h-244zM410 545h280v731h-18z" />
<glyph unicode="&#xc7;" horiz-adv-x="1062" d="M86 731q0 403 107.5 581.5t377.5 178.5q440 0 441 -459v-26h-234v24q0 123 -47 206t-162 79q-90 0 -142 -45t-80 -173t-28 -360q0 -340 57.5 -465t192.5 -125q217 0 217 353v24h234v-30q0 -137 -36 -246t-131 -188.5t-245 -88.5l-63 -88q51 10 82 11q68 0 113.5 -45.5 t45.5 -106.5q0 -82 -68.5 -133t-170.5 -51q-115 0 -207 34l33 82q72 -27 135 -26q115 0 115 78q0 35 -28 56t-67 21q-23 0 -77 -16l-37 35l96 149q-236 20 -330 199.5t-94 560.5z" />
<glyph unicode="&#xc8;" horiz-adv-x="985" d="M121 0v1462h790v-196h-557v-406h525v-196h-525v-467h574v-197h-807zM262 1839h246l123 -295h-152z" />
<glyph unicode="&#xc9;" horiz-adv-x="985" d="M121 0v1462h790v-196h-557v-406h525v-196h-525v-467h574v-197h-807zM406 1544l122 295h246l-217 -295h-151z" />
<glyph unicode="&#xca;" horiz-adv-x="985" d="M121 0v1462h790v-196h-557v-406h525v-196h-525v-467h574v-197h-807zM223 1544l187 295h221l182 -295h-186l-111 180l-117 -180h-176z" />
<glyph unicode="&#xcb;" horiz-adv-x="985" d="M121 0v1462h790v-196h-557v-406h525v-196h-525v-467h574v-197h-807zM250 1585v221h196v-221h-196zM590 1585v221h196v-221h-196z" />
<glyph unicode="&#xcc;" horiz-adv-x="454" d="M-29 1839h246l123 -295h-152zM111 0v1462h233v-1462h-233z" />
<glyph unicode="&#xcd;" horiz-adv-x="454" d="M111 0v1462h233v-1462h-233zM115 1544l123 295h245l-217 -295h-151z" />
<glyph unicode="&#xce;" horiz-adv-x="454" d="M-68 1544l187 295h221l182 -295h-186l-111 180l-116 -180h-177zM111 0v1462h233v-1462h-233z" />
<glyph unicode="&#xcf;" horiz-adv-x="454" d="M-41 1585v221h197v-221h-197zM111 0v1462h233v-1462h-233zM299 1585v221h197v-221h-197z" />
<glyph unicode="&#xd0;" horiz-adv-x="1138" d="M0 682v164h121v616h416q135 0 230 -35.5t150.5 -95t86 -158t40 -199t9.5 -243.5t-9.5 -243.5t-40 -199t-86 -157.5t-150.5 -95t-230 -36h-416v682h-121zM354 176h193q147 0 209.5 121t62.5 434q0 309 -60.5 432t-211.5 123h-193v-440h244v-164h-244v-506z" />
<glyph unicode="&#xd1;" horiz-adv-x="1175" d="M121 0v1462h285l423 -1089h5v1089h221v-1462h-285l-424 1118h-4v-1118h-221zM279 1559q0 84 52 164.5t154 80.5q27 0 109 -35q78 -37 115 -36q61 0 61 77h127q0 -80 -48 -160.5t-128 -80.5q-49 0 -133 35.5t-113 35.5q-33 0 -51 -24.5t-18 -56.5h-127z" />
<glyph unicode="&#xd2;" horiz-adv-x="1138" d="M86 731q0 393 115.5 576.5t367.5 183.5t368 -183.5t116 -576.5t-116 -576.5t-368 -183.5t-367.5 183.5t-115.5 576.5zM313 1839h246l123 -295h-152zM319 737q0 -182 18.5 -303t55.5 -181t78 -83t98.5 -23t98.5 23t77.5 83t55 181t18.5 303q0 178 -18.5 297t-55 177.5 t-77.5 81t-98.5 22.5t-98.5 -22.5t-78 -81t-55.5 -177.5t-18.5 -297z" />
<glyph unicode="&#xd3;" horiz-adv-x="1138" d="M86 731q0 393 115.5 576.5t367.5 183.5t368 -183.5t116 -576.5t-116 -576.5t-368 -183.5t-367.5 183.5t-115.5 576.5zM319 737q0 -182 18.5 -303t55.5 -181t78 -83t98.5 -23t98.5 23t77.5 83t55 181t18.5 303q0 178 -18.5 297t-55 177.5t-77.5 81t-98.5 22.5t-98.5 -22.5 t-78 -81t-55.5 -177.5t-18.5 -297zM457 1544l123 295h245l-217 -295h-151z" />
<glyph unicode="&#xd4;" horiz-adv-x="1138" d="M86 731q0 393 115.5 576.5t367.5 183.5t368 -183.5t116 -576.5t-116 -576.5t-368 -183.5t-367.5 183.5t-115.5 576.5zM274 1544l187 295h221l182 -295h-186l-111 180l-116 -180h-177zM319 737q0 -182 18.5 -303t55.5 -181t78 -83t98.5 -23t98.5 23t77.5 83t55 181 t18.5 303q0 178 -18.5 297t-55 177.5t-77.5 81t-98.5 22.5t-98.5 -22.5t-78 -81t-55.5 -177.5t-18.5 -297z" />
<glyph unicode="&#xd5;" horiz-adv-x="1138" d="M86 731q0 393 115.5 576.5t367.5 183.5t368 -183.5t116 -576.5t-116 -576.5t-368 -183.5t-367.5 183.5t-115.5 576.5zM260 1559q0 84 52.5 164.5t154.5 80.5q27 0 108 -35q78 -37 115 -36q61 0 62 77h127q0 -80 -48.5 -160.5t-128.5 -80.5q-49 0 -133 35.5t-112 35.5 q-33 0 -51.5 -24.5t-18.5 -56.5h-127zM319 737q0 -182 18.5 -303t55.5 -181t78 -83t98.5 -23t98.5 23t77.5 83t55 181t18.5 303q0 178 -18.5 297t-55 177.5t-77.5 81t-98.5 22.5t-98.5 -22.5t-78 -81t-55.5 -177.5t-18.5 -297z" />
<glyph unicode="&#xd6;" horiz-adv-x="1138" d="M86 731q0 393 115.5 576.5t367.5 183.5t368 -183.5t116 -576.5t-116 -576.5t-368 -183.5t-367.5 183.5t-115.5 576.5zM301 1585v221h197v-221h-197zM319 737q0 -182 18.5 -303t55.5 -181t78 -83t98.5 -23t98.5 23t77.5 83t55 181t18.5 303q0 178 -18.5 297t-55 177.5 t-77.5 81t-98.5 22.5t-98.5 -22.5t-78 -81t-55.5 -177.5t-18.5 -297zM641 1585v221h197v-221h-197z" />
<glyph unicode="&#xd7;" horiz-adv-x="1228" d="M143 162l357 356l-357 356l115 115l354 -356l359 356l114 -115l-358 -356l358 -356l-114 -115l-359 359l-354 -359z" />
<glyph unicode="&#xd8;" horiz-adv-x="1138" d="M86 731q0 393 115.5 576.5t367.5 183.5q139 0 236 -57l55 133l105 -49l-68 -158q156 -176 156 -629q0 -393 -116 -576.5t-368 -183.5q-139 0 -233 58l-57 -135l-105 49l68 159q-156 176 -156 629zM319 737q0 -233 33 -370h4l369 876q-53 72 -156 72q-57 0 -98 -22.5 t-78 -81t-55.5 -177.5t-18.5 -297zM416 219q51 -72 153 -72q57 0 98.5 23t78 83t55 181t18.5 303q0 225 -31 359h-4z" />
<glyph unicode="&#xd9;" horiz-adv-x="1099" d="M102 432v1030h234v-1048q0 -266 215 -267q213 0 213 267v1048h233v-1030q0 -244 -113.5 -352.5t-332.5 -108.5t-334 108.5t-115 352.5zM295 1839h246l123 -295h-152z" />
<glyph unicode="&#xda;" horiz-adv-x="1099" d="M102 432v1030h234v-1048q0 -266 215 -267q213 0 213 267v1048h233v-1030q0 -244 -113.5 -352.5t-332.5 -108.5t-334 108.5t-115 352.5zM438 1544l123 295h246l-217 -295h-152z" />
<glyph unicode="&#xdb;" horiz-adv-x="1099" d="M102 432v1030h234v-1048q0 -266 215 -267q213 0 213 267v1048h233v-1030q0 -244 -113.5 -352.5t-332.5 -108.5t-334 108.5t-115 352.5zM256 1544l186 295h222l182 -295h-187l-110 180l-117 -180h-176z" />
<glyph unicode="&#xdc;" horiz-adv-x="1099" d="M102 432v1030h234v-1048q0 -266 215 -267q213 0 213 267v1048h233v-1030q0 -244 -113.5 -352.5t-332.5 -108.5t-334 108.5t-115 352.5zM283 1585v221h196v-221h-196zM623 1585v221h196v-221h-196z" />
<glyph unicode="&#xdd;" horiz-adv-x="985" d="M-8 1462h260l246 -631l252 631h243l-391 -891v-571h-233v571zM381 1544l123 295h246l-218 -295h-151z" />
<glyph unicode="&#xde;" horiz-adv-x="1024" d="M121 0v1462h233v-278h230q203 0 303 -115t100 -311q0 -199 -112.5 -315.5t-315.5 -116.5h-205v-326h-233zM354 502h166q102 0 168 61.5t66 190.5q0 125 -58.5 189.5t-191.5 64.5h-150v-506z" />
<glyph unicode="&#xdf;" horiz-adv-x="985" d="M90 0v1092q0 387 385 387q102 0 183 -27t140.5 -105.5t59.5 -203.5q0 -252 -205 -303v-4q145 -14 207 -122t62 -259q0 -215 -96.5 -341t-293.5 -126h-104v176h55q205 0 205 287q0 293 -203 292h-53v164h39q55 0 110.5 47t55.5 154q0 207 -164 207q-162 0 -162 -207v-1108 h-221z" />
<glyph unicode="&#xe0;" d="M63 281q0 168 61.5 235.5t194.5 110.5l173 47q70 18 99.5 47t29.5 94q0 80 -34 122t-118 42q-100 0 -134 -56.5t-34 -154.5h-209q0 182 88 272t299 90q158 0 254 -65.5t96 -204.5v-631q0 -31 16.5 -54t41 -23t37.5 6v-144q-57 -27 -109 -26q-178 0 -186 145h-4 q-88 -162 -275 -162q-135 0 -211 78t-76 232zM219 1540h246l123 -295h-152zM285 301q0 -74 35.5 -120t101.5 -46q98 0 148.5 68.5t50.5 193.5v185q-33 -27 -132.5 -62t-113.5 -41q-90 -43 -90 -178z" />
<glyph unicode="&#xe1;" d="M63 281q0 168 61.5 235.5t194.5 110.5l173 47q70 18 99.5 47t29.5 94q0 80 -34 122t-118 42q-100 0 -134 -56.5t-34 -154.5h-209q0 182 88 272t299 90q158 0 254 -65.5t96 -204.5v-631q0 -31 16.5 -54t41 -23t37.5 6v-144q-57 -27 -109 -26q-178 0 -186 145h-4 q-88 -162 -275 -162q-135 0 -211 78t-76 232zM285 301q0 -74 35.5 -120t101.5 -46q98 0 148.5 68.5t50.5 193.5v185q-33 -27 -132.5 -62t-113.5 -41q-90 -43 -90 -178zM362 1245l123 295h246l-217 -295h-152z" />
<glyph unicode="&#xe2;" d="M63 281q0 168 61.5 235.5t194.5 110.5l173 47q70 18 99.5 47t29.5 94q0 80 -34 122t-118 42q-100 0 -134 -56.5t-34 -154.5h-209q0 182 88 272t299 90q158 0 254 -65.5t96 -204.5v-631q0 -31 16.5 -54t41 -23t37.5 6v-144q-57 -27 -109 -26q-178 0 -186 145h-4 q-88 -162 -275 -162q-135 0 -211 78t-76 232zM180 1245l187 295h221l182 -295h-186l-111 180l-117 -180h-176zM285 301q0 -74 35.5 -120t101.5 -46q98 0 148.5 68.5t50.5 193.5v185q-33 -27 -132.5 -62t-113.5 -41q-90 -43 -90 -178z" />
<glyph unicode="&#xe3;" d="M63 281q0 168 61.5 235.5t194.5 110.5l173 47q70 18 99.5 47t29.5 94q0 80 -34 122t-118 42q-100 0 -134 -56.5t-34 -154.5h-209q0 182 88 272t299 90q158 0 254 -65.5t96 -204.5v-631q0 -31 16.5 -54t41 -23t37.5 6v-144q-57 -27 -109 -26q-178 0 -186 145h-4 q-88 -162 -275 -162q-135 0 -211 78t-76 232zM166 1260q0 84 52 164.5t155 80.5q27 0 108 -35q78 -37 115 -36q61 0 61 77h127q0 -80 -48 -160.5t-128 -80.5q-49 0 -133 35.5t-113 35.5q-33 0 -51 -24.5t-18 -56.5h-127zM285 301q0 -74 35.5 -120t101.5 -46q98 0 148.5 68.5 t50.5 193.5v185q-33 -27 -132.5 -62t-113.5 -41q-90 -43 -90 -178z" />
<glyph unicode="&#xe4;" d="M63 281q0 168 61.5 235.5t194.5 110.5l173 47q70 18 99.5 47t29.5 94q0 80 -34 122t-118 42q-100 0 -134 -56.5t-34 -154.5h-209q0 182 88 272t299 90q158 0 254 -65.5t96 -204.5v-631q0 -31 16.5 -54t41 -23t37.5 6v-144q-57 -27 -109 -26q-178 0 -186 145h-4 q-88 -162 -275 -162q-135 0 -211 78t-76 232zM207 1286v221h196v-221h-196zM285 301q0 -74 35.5 -120t101.5 -46q98 0 148.5 68.5t50.5 193.5v185q-33 -27 -132.5 -62t-113.5 -41q-90 -43 -90 -178zM547 1286v221h196v-221h-196z" />
<glyph unicode="&#xe5;" d="M63 281q0 168 61.5 235.5t194.5 110.5l173 47q70 18 99.5 47t29.5 94q0 80 -34 122t-118 42q-100 0 -134 -56.5t-34 -154.5h-209q0 182 88 272t299 90q158 0 254 -65.5t96 -204.5v-631q0 -31 16.5 -54t41 -23t37.5 6v-144q-57 -27 -109 -26q-178 0 -186 145h-4 q-88 -162 -275 -162q-135 0 -211 78t-76 232zM258 1431.5q0 90.5 63.5 154t153.5 63.5t153.5 -63.5t63.5 -154t-63.5 -154t-153.5 -63.5t-153.5 63.5t-63.5 154zM285 301q0 -74 35.5 -120t101.5 -46q98 0 148.5 68.5t50.5 193.5v185q-33 -27 -132.5 -62t-113.5 -41 q-90 -43 -90 -178zM360 1431.5q0 -47.5 34 -81t81 -33.5t81 33.5t34 81t-34 81t-81 33.5t-81 -33.5t-34 -81z" />
<glyph unicode="&#xe6;" horiz-adv-x="1441" d="M63 281q0 160 69 231.5t204 105.5l174 46q55 14 74.5 43.5t19.5 107.5q0 164 -135 164q-100 0 -134 -56.5t-34 -154.5h-209q0 182 88 272t299 90q201 0 258 -141q82 137 271 141q199 0 278.5 -122.5t79.5 -368.5v-117h-551v-78q0 -313 162 -321q55 0 93 27.5t54.5 71.5 t22.5 79t6 68h209q0 -182 -103.5 -290t-283.5 -108q-76 2 -132.5 21.5t-90 57.5t-48 61.5t-30.5 60.5q-41 -96 -120 -148.5t-177 -52.5q-133 0 -223.5 78t-90.5 232zM285 289q0 -63 34.5 -108.5t94.5 -45.5q193 0 192 256v174q-27 -31 -160 -65q-102 -29 -131.5 -77 t-29.5 -134zM817 674h328v59q0 246 -160 246q-88 0 -128 -83t-40 -175v-47z" />
<glyph unicode="&#xe7;" horiz-adv-x="909" d="M63 551q0 279 92.5 429t317.5 150q94 2 166 -26.5t110.5 -70.5t63.5 -99t32 -103.5t7 -95.5h-221q0 96 -35 165t-123 67q-111 0 -149.5 -104.5t-38.5 -311.5t38.5 -311.5t149.5 -104.5q88 -2 128 66.5t40 199.5h209q-10 -193 -82 -300t-233 -124l-68 -94q51 10 82 11 q68 0 114 -45.5t46 -106.5q0 -82 -69 -133t-171 -51q-115 0 -207 34l33 82q72 -27 135 -26q115 0 115 78q0 35 -28 56t-66 21q-23 0 -78 -16l-37 35l96 153q-139 8 -223 87t-115 197t-31 292z" />
<glyph unicode="&#xe8;" d="M76 535q0 121 16.5 217t57 187t125.5 141t208 50q219 0 304 -121.5t85 -369.5v-117h-575v-63q0 -66 6 -117t23.5 -105.5t56.5 -84t98 -29.5q55 0 93 27.5t54.5 71.5t22.5 79t6 68h209q0 -182 -103.5 -290t-283.5 -108q-63 0 -112.5 9.5t-106.5 43t-95 92t-63.5 165.5 t-25.5 254zM244 1540h245l123 -295h-151zM297 674h354v59q0 246 -170 246q-98 0 -141 -80t-43 -203v-22z" />
<glyph unicode="&#xe9;" d="M76 535q0 121 16.5 217t57 187t125.5 141t208 50q219 0 304 -121.5t85 -369.5v-117h-575v-63q0 -66 6 -117t23.5 -105.5t56.5 -84t98 -29.5q55 0 93 27.5t54.5 71.5t22.5 79t6 68h209q0 -182 -103.5 -290t-283.5 -108q-63 0 -112.5 9.5t-106.5 43t-95 92t-63.5 165.5 t-25.5 254zM297 674h354v59q0 246 -170 246q-98 0 -141 -80t-43 -203v-22zM387 1245l123 295h246l-217 -295h-152z" />
<glyph unicode="&#xea;" d="M76 535q0 121 16.5 217t57 187t125.5 141t208 50q219 0 304 -121.5t85 -369.5v-117h-575v-63q0 -66 6 -117t23.5 -105.5t56.5 -84t98 -29.5q55 0 93 27.5t54.5 71.5t22.5 79t6 68h209q0 -182 -103.5 -290t-283.5 -108q-63 0 -112.5 9.5t-106.5 43t-95 92t-63.5 165.5 t-25.5 254zM205 1245l186 295h221l183 -295h-187l-110 180l-117 -180h-176zM297 674h354v59q0 246 -170 246q-98 0 -141 -80t-43 -203v-22z" />
<glyph unicode="&#xeb;" d="M76 535q0 121 16.5 217t57 187t125.5 141t208 50q219 0 304 -121.5t85 -369.5v-117h-575v-63q0 -66 6 -117t23.5 -105.5t56.5 -84t98 -29.5q55 0 93 27.5t54.5 71.5t22.5 79t6 68h209q0 -182 -103.5 -290t-283.5 -108q-63 0 -112.5 9.5t-106.5 43t-95 92t-63.5 165.5 t-25.5 254zM231 1286v221h197v-221h-197zM297 674h354v59q0 246 -170 246q-98 0 -141 -80t-43 -203v-22zM571 1286v221h197v-221h-197z" />
<glyph unicode="&#xec;" horiz-adv-x="454" d="M-29 1540h246l123 -295h-152zM117 0v1102h221v-1102h-221z" />
<glyph unicode="&#xed;" horiz-adv-x="454" d="M115 1245l123 295h245l-217 -295h-151zM117 0v1102h221v-1102h-221z" />
<glyph unicode="&#xee;" horiz-adv-x="454" d="M-68 1245l187 295h221l182 -295h-186l-111 180l-116 -180h-177zM117 0v1102h221v-1102h-221z" />
<glyph unicode="&#xef;" horiz-adv-x="454" d="M-41 1286v221h197v-221h-197zM117 0v1102h221v-1102h-221zM299 1286v221h197v-221h-197z" />
<glyph unicode="&#xf0;" d="M63 551q0 551 377 551q106 0 168 -68l4 4q-92 139 -241 285l-178 -98l-74 73l176 97q-70 68 -131 106l162 88q51 -31 135 -104l186 100l66 -74l-176 -96q201 -190 274.5 -377.5t73.5 -486.5q0 -580 -412 -580q-410 0 -410 580zM285 551q0 -225 37.5 -320.5t150.5 -95.5 q115 0 153 95.5t38 320.5q0 88 -7.5 152.5t-27 121t-58.5 85t-98 28.5q-57 0 -96 -28.5t-58.5 -85t-26.5 -121t-7 -152.5z" />
<glyph unicode="&#xf1;" horiz-adv-x="985" d="M106 0v1102h209v-129h7q41 74 115.5 115.5t166.5 41.5q133 0 204 -69.5t71 -229.5v-831h-222v756q0 106 -34.5 152t-118.5 46q-74 0 -125 -56t-51 -159v-739h-222zM184 1260q0 84 52.5 164.5t154.5 80.5q27 0 109 -35q78 -37 114 -36q61 0 62 77h127q0 -80 -48 -160.5 t-128 -80.5q-49 0 -133 35.5t-113 35.5q-33 0 -51.5 -24.5t-18.5 -56.5h-127z" />
<glyph unicode="&#xf2;" d="M63 551q0 279 92.5 429t317.5 150q227 0 319.5 -150.5t92.5 -428.5q0 -580 -412 -580q-410 0 -410 580zM219 1540h246l123 -295h-152zM285 551q0 -225 37.5 -320.5t150.5 -95.5q115 0 153 95.5t38 320.5q0 207 -39 311.5t-152 104.5q-111 0 -149.5 -104.5t-38.5 -311.5z " />
<glyph unicode="&#xf3;" d="M63 551q0 279 92.5 429t317.5 150q227 0 319.5 -150.5t92.5 -428.5q0 -580 -412 -580q-410 0 -410 580zM285 551q0 -225 37.5 -320.5t150.5 -95.5q115 0 153 95.5t38 320.5q0 207 -39 311.5t-152 104.5q-111 0 -149.5 -104.5t-38.5 -311.5zM362 1245l123 295h246 l-217 -295h-152z" />
<glyph unicode="&#xf4;" d="M63 551q0 279 92.5 429t317.5 150q227 0 319.5 -150.5t92.5 -428.5q0 -580 -412 -580q-410 0 -410 580zM180 1245l187 295h221l182 -295h-186l-111 180l-117 -180h-176zM285 551q0 -225 37.5 -320.5t150.5 -95.5q115 0 153 95.5t38 320.5q0 207 -39 311.5t-152 104.5 q-111 0 -149.5 -104.5t-38.5 -311.5z" />
<glyph unicode="&#xf5;" d="M63 551q0 279 92.5 429t317.5 150q227 0 319.5 -150.5t92.5 -428.5q0 -580 -412 -580q-410 0 -410 580zM166 1260q0 84 52 164.5t155 80.5q27 0 108 -35q78 -37 115 -36q61 0 61 77h127q0 -80 -48 -160.5t-128 -80.5q-49 0 -133 35.5t-113 35.5q-33 0 -51 -24.5 t-18 -56.5h-127zM285 551q0 -225 37.5 -320.5t150.5 -95.5q115 0 153 95.5t38 320.5q0 207 -39 311.5t-152 104.5q-111 0 -149.5 -104.5t-38.5 -311.5z" />
<glyph unicode="&#xf6;" d="M63 551q0 279 92.5 429t317.5 150q227 0 319.5 -150.5t92.5 -428.5q0 -580 -412 -580q-410 0 -410 580zM207 1286v221h196v-221h-196zM285 551q0 -225 37.5 -320.5t150.5 -95.5q115 0 153 95.5t38 320.5q0 207 -39 311.5t-152 104.5q-111 0 -149.5 -104.5t-38.5 -311.5z M547 1286v221h196v-221h-196z" />
<glyph unicode="&#xf7;" horiz-adv-x="1228" d="M96 430v176h1037v-176h-1037zM467 98.5q0 61.5 43 104.5t104.5 43t104.5 -43t43 -104.5t-43 -104.5t-104.5 -43t-104.5 43t-43 104.5zM467 938q0 61 43 104t104.5 43t104.5 -43t43 -104t-43 -104t-104.5 -43t-104.5 43t-43 104z" />
<glyph unicode="&#xf8;" d="M63 551q0 279 92.5 429t317.5 150q113 0 191 -40l61 133l98 -54l-67 -143q129 -129 129 -475q0 -279 -92.5 -429.5t-319.5 -150.5q-113 0 -190 39l-64 -137l-98 53l72 152q-130 129 -130 473zM285 551q0 -143 14 -238h4l283 609q-45 45 -113 45q-111 0 -149.5 -104.5 t-38.5 -311.5zM362 180q41 -45 111 -45q113 0 152 104.5t39 311.5q0 150 -17 240h-4z" />
<glyph unicode="&#xf9;" horiz-adv-x="985" d="M106 332v770h222v-791q0 -88 37.5 -126t111.5 -38q76 0 128 48.5t52 136.5v770h222v-1102h-209v129h-6q-41 -74 -116 -116t-167 -42q-133 0 -204 80t-71 281zM238 1540h245l123 -295h-151z" />
<glyph unicode="&#xfa;" horiz-adv-x="985" d="M106 332v770h222v-791q0 -88 37.5 -126t111.5 -38q76 0 128 48.5t52 136.5v770h222v-1102h-209v129h-6q-41 -74 -116 -116t-167 -42q-133 0 -204 80t-71 281zM381 1245l123 295h246l-218 -295h-151z" />
<glyph unicode="&#xfb;" horiz-adv-x="985" d="M106 332v770h222v-791q0 -88 37.5 -126t111.5 -38q76 0 128 48.5t52 136.5v770h222v-1102h-209v129h-6q-41 -74 -116 -116t-167 -42q-133 0 -204 80t-71 281zM199 1245l186 295h221l182 -295h-186l-110 180l-117 -180h-176z" />
<glyph unicode="&#xfc;" horiz-adv-x="985" d="M106 332v770h222v-791q0 -88 37.5 -126t111.5 -38q76 0 128 48.5t52 136.5v770h222v-1102h-209v129h-6q-41 -74 -116 -116t-167 -42q-133 0 -204 80t-71 281zM225 1286v221h197v-221h-197zM565 1286v221h197v-221h-197z" />
<glyph unicode="&#xfd;" horiz-adv-x="872" d="M16 1102h238l190 -828h5l176 828h231l-303 -1143q-63 -219 -136 -279.5t-249 -56.5q-31 0 -88 8v176q49 -8 72 -8q61 0 96 18.5t53 67.5l29 90zM324 1245l122 295h246l-217 -295h-151z" />
<glyph unicode="&#xfe;" horiz-adv-x="985" d="M106 -360v1822h222v-489h4q66 158 250 157q340 0 340 -593q0 -166 -31 -283t-84 -175.5t-107.5 -83t-117.5 -24.5q-184 0 -250 158h-4v-489h-222zM315 563q0 -215 39 -315.5t150 -100.5q98 0 141 88.5t43 311.5q0 205 -39 306t-147 101q-106 0 -146.5 -98t-40.5 -293z " />
<glyph unicode="&#xff;" horiz-adv-x="872" d="M16 1102h238l190 -828h5l176 828h231l-303 -1143q-63 -219 -136 -279.5t-249 -56.5q-31 0 -88 8v176q49 -8 72 -8q61 0 96 18.5t53 67.5l29 90zM168 1286v221h197v-221h-197zM508 1286v221h197v-221h-197z" />
<glyph unicode="&#x152;" horiz-adv-x="1630" d="M86 731q0 389 111.5 574.5t343.5 185.5q197 0 274 -119h4v90h725v-196h-520v-406h487v-196h-487v-467h537v-197h-742v104h-4q-82 -133 -283 -133q-229 0 -337.5 182.5t-108.5 577.5zM319 737q0 -182 18.5 -303t55.5 -181t78 -83t98 -23q115 0 174.5 70t59.5 266v496 q0 195 -56.5 265.5t-160.5 70.5q-51 0 -88 -12.5t-73 -49t-57.5 -100t-35 -168.5t-13.5 -248z" />
<glyph unicode="&#x153;" horiz-adv-x="1478" d="M63 551q0 135 19.5 236.5t65 181.5t124 120.5t193.5 40.5q72 0 126 -15t89 -45t51.5 -51.5t36.5 -55.5q98 168 289 167q199 0 278.5 -122.5t79.5 -368.5v-117h-551v-78q0 -313 162 -321q55 0 93 27.5t54.5 71.5t22.5 79t6 68h209q0 -182 -103.5 -290t-283.5 -108 q-70 0 -125 21.5t-84 55.5t-42 56.5t-19 42.5q-86 -176 -303 -176q-211 0 -299.5 152t-88.5 428zM285 551q0 -100 7 -170t25.5 -128t55.5 -88t92 -30q113 0 151.5 104.5t38.5 311.5t-38.5 311.5t-151.5 104.5q-55 0 -92 -30t-55.5 -88t-25.5 -128t-7 -170zM866 674h328v59 q0 246 -160 246q-88 0 -128 -83t-40 -175v-47z" />
<glyph unicode="&#x178;" horiz-adv-x="985" d="M-8 1462h260l246 -631l252 631h243l-391 -891v-571h-233v571zM225 1585v221h197v-221h-197zM565 1585v221h197v-221h-197z" />
<glyph unicode="&#x2c6;" horiz-adv-x="454" d="M-68 1245l187 295h221l182 -295h-186l-111 180l-116 -180h-177z" />
<glyph unicode="&#x2dc;" horiz-adv-x="454" d="M-82 1260q0 84 52.5 164.5t154.5 80.5q27 0 108 -35q78 -37 115 -36q61 0 62 77h127q0 -80 -48.5 -160.5t-128.5 -80.5q-49 0 -133 35.5t-112 35.5q-33 0 -51.5 -24.5t-18.5 -56.5h-127z" />
<glyph unicode="&#x2000;" horiz-adv-x="972" />
<glyph unicode="&#x2001;" horiz-adv-x="1947" />
<glyph unicode="&#x2002;" horiz-adv-x="972" />
<glyph unicode="&#x2003;" horiz-adv-x="1947" />
<glyph unicode="&#x2004;" horiz-adv-x="649" />
<glyph unicode="&#x2005;" horiz-adv-x="485" />
<glyph unicode="&#x2006;" horiz-adv-x="323" />
<glyph unicode="&#x2007;" horiz-adv-x="323" />
<glyph unicode="&#x2008;" horiz-adv-x="241" />
<glyph unicode="&#x2009;" horiz-adv-x="389" />
<glyph unicode="&#x200a;" horiz-adv-x="106" />
<glyph unicode="&#x2010;" horiz-adv-x="720" d="M92 487v209h537v-209h-537z" />
<glyph unicode="&#x2011;" horiz-adv-x="720" d="M92 487v209h537v-209h-537z" />
<glyph unicode="&#x2012;" horiz-adv-x="720" d="M92 487v209h537v-209h-537z" />
<glyph unicode="&#x2013;" horiz-adv-x="1024" d="M0 494v196h1024v-196h-1024z" />
<glyph unicode="&#x2014;" horiz-adv-x="2048" d="M0 494v196h2048v-196h-2048z" />
<glyph unicode="&#x2018;" horiz-adv-x="491" d="M129 877v270q0 131 53.5 211t179.5 104v-119q-102 -27 -102 -165v-31h102v-270h-233z" />
<glyph unicode="&#x2019;" horiz-adv-x="491" d="M129 877v118q102 27 102 166v31h-102v270h233v-270q0 -131 -53 -210.5t-180 -104.5z" />
<glyph unicode="&#x201a;" horiz-adv-x="491" d="M129 0v270h233v-270q0 -131 -53 -211t-180 -104v118q102 27 102 166v31h-102z" />
<glyph unicode="&#x201c;" horiz-adv-x="872" d="M137 877v270q0 131 53.5 211t180.5 104v-119q-102 -27 -103 -165v-31h103v-270h-234zM502 877v270q0 131 53 211t180 104v-119q-102 -27 -102 -165v-31h102v-270h-233z" />
<glyph unicode="&#x201d;" horiz-adv-x="872" d="M137 877v118q102 27 103 166v31h-103v270h234v-270q0 -131 -53.5 -210.5t-180.5 -104.5zM502 877v118q102 27 102 166v31h-102v270h233v-270q0 -131 -53 -210.5t-180 -104.5z" />
<glyph unicode="&#x201e;" horiz-adv-x="872" d="M137 0v270h234v-270q0 -131 -53.5 -211t-180.5 -104v118q102 27 103 166v31h-103zM502 0v270h233v-270q0 -131 -53 -211t-180 -104v118q102 27 102 166v31h-102z" />
<glyph unicode="&#x2022;" horiz-adv-x="1024" d="M147 731.5q0 149.5 106.5 257t258.5 107.5t258.5 -107.5t106.5 -257t-106.5 -257t-258.5 -107.5t-258.5 107.5t-106.5 257z" />
<glyph unicode="&#x2026;" horiz-adv-x="2048" d="M225 0v270h234v-270h-234zM907 0v270h234v-270h-234zM1589 0v270h234v-270h-234z" />
<glyph unicode="&#x202f;" horiz-adv-x="389" />
<glyph unicode="&#x2039;" horiz-adv-x="491" d="M98 475v234l295 276v-225l-180 -168l180 -168v-225z" />
<glyph unicode="&#x203a;" horiz-adv-x="491" d="M98 199v225l181 168l-181 168v225l295 -276v-234z" />
<glyph unicode="&#x205f;" horiz-adv-x="485" />
<glyph unicode="&#x2122;" horiz-adv-x="2048" d="M66 1323v139h679v-139h-251v-705h-177v705h-251zM913 618v844h244l229 -598l230 598h244v-844h-164v668h-4l-248 -668h-115l-248 668h-4v-668h-164z" />
<glyph unicode="&#xe000;" horiz-adv-x="1100" d="M0 1100h1100v-1100h-1100v1100z" />
<glyph unicode="&#xfb01;" horiz-adv-x="1024" d="M20 938v164h154v102q0 152 69.5 213.5t211.5 61.5q72 0 120 -6v-170h-61q-119 0 -119 -105v-96h180v-164h-180v-938h-221v938h-154zM686 0v1102h221v-1102h-221zM686 1257v222h221v-222h-221z" />
<glyph unicode="&#xfb02;" horiz-adv-x="1024" d="M20 938v164h154v102q0 152 69.5 213.5t211.5 61.5q72 0 120 -6v-170h-61q-119 0 -119 -105v-96h180v-164h-180v-938h-221v938h-154zM686 0v1462h221v-1462h-221z" />
<glyph unicode="&#xfb03;" horiz-adv-x="1593" d="M1256 0v1102h221v-1102h-221zM1256 1257v222h221v-222h-221zM589 938v164h154v102q0 152 69.5 213.5t211.5 61.5q72 0 120 -6v-170h-61q-119 0 -119 -105v-96h180v-164h-180v-938h-221v938h-154zM20 938v164h154v102q0 152 69.5 213.5t211.5 61.5q72 0 120 -6v-170h-61 q-119 0 -119 -105v-96h180v-164h-180v-938h-221v938h-154z" />
<glyph unicode="&#xfb04;" horiz-adv-x="1593" d="M1256 0v1462h221v-1462h-221zM589 938v164h154v102q0 152 69.5 213.5t211.5 61.5q72 0 120 -6v-170h-61q-119 0 -119 -105v-96h180v-164h-180v-938h-221v938h-154zM20 938v164h154v102q0 152 69.5 213.5t211.5 61.5q72 0 120 -6v-170h-61q-119 0 -119 -105v-96h180v-164 h-180v-938h-221v938h-154z" />
</font>
</defs></svg> 